{
	"name": "${ADDON_FILE_NAME}",
	"version": "0.0.1",
	"description": "Starting point for developing a nuclos addon component",
	"main": "bundles/npm-module-seed.umd.min.js",
	"module": "index.js",
	"typings": "index.d.ts",
	"keywords": [
		"angular"
	],
	"peerDependencies": {
		"@angular/core": "5.2.10",
		"rxjs": "5.4.3",
		"zone.js": "0.8.26"
	}
}
